<?xml version="1.0" encoding="UTF-8" standalone="no"?>
<!-- Created with Inkscape (http://www.inkscape.org/) -->

<svg
   width="24.080624mm"
   height="6.5334487mm"
   viewBox="0 0 24.080623 6.5334487"
   version="1.1"
   id="svg1"
   inkscape:version="1.3 (0e150ed6c4, 2023-07-21)"
   sodipodi:docname="logo.svg"
   xmlns:inkscape="http://www.inkscape.org/namespaces/inkscape"
   xmlns:sodipodi="http://sodipodi.sourceforge.net/DTD/sodipodi-0.dtd"
   xmlns="http://www.w3.org/2000/svg"
   xmlns:svg="http://www.w3.org/2000/svg">
  <sodipodi:namedview
     id="namedview1"
     pagecolor="#ffffff"
     bordercolor="#000000"
     borderopacity="0.25"
     inkscape:showpageshadow="2"
     inkscape:pageopacity="0.0"
     inkscape:pagecheckerboard="true"
     inkscape:deskcolor="#ffffff"
     inkscape:document-units="mm"
     showguides="false"
     inkscape:clip-to-page="false"
     showborder="false"
     inkscape:zoom="4.6418424"
     inkscape:cx="56.33539"
     inkscape:cy="23.266624"
     inkscape:window-width="1366"
     inkscape:window-height="739"
     inkscape:window-x="0"
     inkscape:window-y="0"
     inkscape:window-maximized="1"
     inkscape:current-layer="layer1">
    <sodipodi:guide
       position="23.938092,290.32197"
       orientation="1,0"
       id="guide2"
       inkscape:locked="false" />
  </sodipodi:namedview>
  <defs
     id="defs1" />
  <g
     inkscape:label="Ebene 1"
     inkscape:groupmode="layer"
     id="layer1"
     transform="translate(-39.262869,-65.537288)">
    <path
       d="m 43.503261,65.643122 h -4.240392 v 0.331611 h 0.127 c 0.402167,0.0071 0.536223,0.02822 0.592667,0.09878 0.04233,0.0635 0.04233,0.07761 0.04233,0.437445 v 3.358446 c 0,0.359834 0,0.373945 -0.04233,0.437445 -0.05644,0.07055 -0.1905,0.09878 -0.592667,0.09878 h -0.127 v 0.331611 h 4.332114 l 0.141111,-1.883835 H 43.42565 c -0.268112,1.25589 -0.557389,1.524001 -1.63689,1.552224 h -0.465667 c -0.423334,-0.01411 -0.529167,-0.08467 -0.508,-0.338667 V 68.26779 h 0.141111 c 0.726722,-0.02822 0.987778,0.232833 1.016,1.016001 h 0.331612 v -2.314224 h -0.331612 c -0.04233,0.691445 -0.3175,0.966612 -0.987778,0.966612 h -0.169333 v -1.608668 c -0.0071,-0.296334 0.0635,-0.345722 0.4445,-0.352778 h 0.366889 c 1.157112,-0.0071 1.44639,0.246945 1.672168,1.467556 h 0.303389 z m 5.873754,5.235225 c -0.03528,0.451556 -0.105833,0.62089 -0.282222,0.62089 -0.204611,0 -0.373945,-0.296334 -0.613834,-1.06539 0.733778,-0.606778 1.114779,-1.397001 1.114779,-2.300113 0,-1.453445 -1.079501,-2.596446 -2.441224,-2.596446 -0.578556,0 -1.072445,0.183445 -1.502835,0.571501 -0.578555,0.515055 -0.917222,1.284112 -0.917222,2.088445 0,1.481668 1.086556,2.645835 2.469446,2.645835 0.239889,0 0.395111,-0.02117 0.627945,-0.105833 0.02822,0.846667 0.381,1.333501 0.959556,1.333501 0.564445,0 0.910167,-0.451556 0.903111,-1.19239 z m -1.079501,-0.980723 c -0.183444,-0.663222 -0.613833,-1.030111 -1.2065,-1.030111 -0.592667,0 -1.016001,0.395111 -1.016001,0.959556 0,0.02117 0,0.07055 0.0071,0.127 -0.282223,-0.373945 -0.416278,-0.93839 -0.416278,-1.756835 0,-0.691445 0.119944,-1.277056 0.359833,-1.707445 0.218722,-0.395112 0.627945,-0.620889 1.135945,-0.620889 0.536223,0 0.994834,0.261055 1.213557,0.6985 0.204611,0.395111 0.289278,0.881945 0.289278,1.608668 0,0.8255 -0.09878,1.284112 -0.36689,1.721556 z m -0.493889,0.458612 c -0.211667,0.112889 -0.388056,0.155222 -0.663222,0.155222 -0.465667,0 -0.740834,-0.225778 -0.740834,-0.613834 0,-0.416278 0.268111,-0.6985 0.656167,-0.6985 0.500945,0 0.747889,0.388056 0.747889,1.157112 z m 5.852583,-4.381503 c 0.677333,0.03528 0.811389,0.232833 0.811389,1.199445 v 1.559279 c 0,0.564445 -0.03528,0.790223 -0.169333,1.037167 -0.225778,0.437445 -0.68439,0.691445 -1.25589,0.691445 -0.486834,0 -0.896056,-0.183444 -1.12889,-0.500945 -0.1905,-0.261055 -0.225778,-0.430389 -0.225778,-1.086556 v -2.363612 c 0,-0.359834 0,-0.373945 0.04233,-0.437445 0.05644,-0.07056 0.1905,-0.09172 0.592667,-0.09878 h 0.134055 v -0.331611 h -2.307168 v 0.331611 h 0.119945 c 0.395111,0.0071 0.529167,0.02822 0.585611,0.09878 0.04233,0.0635 0.04233,0.07761 0.04233,0.437445 v 2.321279 0.486833 c 0.02117,0.373945 0.07761,0.599723 0.211666,0.797279 0.324556,0.465667 0.945445,0.726722 1.742724,0.726722 0.797278,0 1.347612,-0.239889 1.686279,-0.740833 0.225778,-0.324556 0.310444,-0.698501 0.310444,-1.326446 v -1.601612 c -0.0071,-0.959556 0.134056,-1.164167 0.818445,-1.199445 v -0.331611 h -2.010834 z m 2.656421,0 h 0.141111 c 0.402167,0.0071 0.536223,0.02822 0.592667,0.09878 0.04233,0.0635 0.04233,0.08467 0.04233,0.437445 v 3.358446 c 0,0.352778 0,0.373945 -0.04233,0.437445 -0.05644,0.07055 -0.1905,0.09878 -0.592667,0.09878 h -0.141111 v 0.331611 h 2.33539 v -0.331611 h -0.141111 c -0.395111,0 -0.529167,-0.02117 -0.585611,-0.09878 -0.04233,-0.0635 -0.04233,-0.07761 -0.04233,-0.437445 v -3.358446 c 0,-0.359834 0,-0.373945 0.04233,-0.437445 0.05644,-0.07056 0.183444,-0.09172 0.585611,-0.09878 h 0.141111 v -0.331611 h -2.33539 z m 6.720419,-0.373945 h -0.261056 l -0.282223,0.423334 c -0.338666,-0.3175 -0.783167,-0.486834 -1.284112,-0.486834 -0.931333,0 -1.545167,0.585612 -1.545167,1.474612 0,0.769056 0.381,1.150057 1.418167,1.418168 l 0.670279,0.169333 c 0.522111,0.134056 0.5715,0.148167 0.719667,0.261056 0.211667,0.162278 0.324556,0.395111 0.324556,0.670278 0,0.282223 -0.105834,0.515056 -0.317501,0.712612 -0.232833,0.197555 -0.465667,0.275167 -0.853722,0.275167 -0.522112,0 -0.896057,-0.162278 -1.227668,-0.529167 -0.296333,-0.324556 -0.4445,-0.663223 -0.550334,-1.206501 h -0.303389 l 0.02822,2.010835 h 0.275166 l 0.317501,-0.479779 c 0.472722,0.388056 0.860778,0.529167 1.481667,0.529167 1.037168,0 1.70039,-0.606778 1.70039,-1.552223 0,-0.4445 -0.141111,-0.811389 -0.423333,-1.0795 -0.190501,-0.183445 -0.465667,-0.30339 -1.030112,-0.444501 l -0.754945,-0.1905 c -0.627945,-0.162278 -0.924278,-0.437445 -0.924278,-0.867834 0,-0.493889 0.402166,-0.832556 1.001889,-0.832556 0.493889,0 0.896056,0.211667 1.178279,0.613834 0.204611,0.289278 0.338666,0.585611 0.423333,0.945445 h 0.303389 z"
       id="text2"
       style="font-size:7.05556px;line-height:1;font-family:C059;-inkscape-font-specification:C059;letter-spacing:0.264583px;fill:#000000;stroke:#000000;stroke-width:0;fill-opacity:1"
       aria-label="EQUIS" />
  </g>
</svg>
